vcds/core_npu.vcd
$date
	Wed Jun 10 12:55:12 2026
$end
$version
	Icarus Verilog
$end
$timescale
	100ps
$end
$scope module core_npu_tb $end
$var wire 16 ! weights_in [15:0] $end
$var wire 16 " weights_in_out [15:0] $end
$var wire 1 # relu_en $end
$var wire 16 $ npu_out [15:0] $end
$var wire 2 % input_count_out [1:0] $end
$var wire 2 & input_count [1:0] $end
$var wire 2 ' addr_neuro_weight_out [1:0] $end
$var wire 2 ( addr_neuro_weight [1:0] $end
$var parameter 32 ) in_qnt $end
$var parameter 32 * layer $end
$var parameter 32 + out_layer $end
$var parameter 32 , tam $end
$var reg 2 - addr_data [1:0] $end
$var reg 1 . clk $end
$var reg 16 / data [15:0] $end
$var reg 16 0 in1 [15:0] $end
$var reg 16 1 in2 [15:0] $end
$var reg 16 2 in3 [15:0] $end
$var reg 1 3 rst $end
$scope module Test_npu $end
$var wire 16 4 bus_input [15:0] $end
$var wire 16 5 bus_weights [15:0] $end
$var wire 16 6 bus_weights_out [15:0] $end
$var wire 1 . clk $end
$var wire 1 3 rst $end
$var wire 1 7 weight_wr $end
$var wire 1 8 weight_out_wr $end
$var wire 2 9 weight_count_out [1:0] $end
$var wire 2 : weight_count [1:0] $end
$var wire 48 ; relu_out [47:0] $end
$var wire 1 # relu_en $end
$var wire 1 < over_out $end
$var wire 1 = over_input_out $end
$var wire 1 > over_input $end
$var wire 1 ? over $end
$var wire 16 @ linear_out [15:0] $end
$var wire 1 A linear_en $end
$var wire 2 B input_count_out [1:0] $end
$var wire 2 C input_count [1:0] $end
$var wire 1 D init_wire $end
$var wire 1 E init_out_wire $end
$var wire 16 F bus_weights_out_internal [15:0] $end
$var wire 32 G bus_weights_internal [31:0] $end
$var wire 1 H att_out $end
$var wire 16 I acc_out_2 [15:0] $end
$var wire 32 J acc_out [31:0] $end
$var wire 1 K PE_out_en $end
$var wire 2 L PE_en [1:0] $end
$var parameter 32 M in_qnt $end
$var parameter 32 N layer $end
$var parameter 32 O out_layer $end
$var parameter 32 P tam $end
$var reg 2 Q addr_wei [1:0] $end
$var reg 2 R addr_wei_out [1:0] $end
$var reg 1 S buffer_out_wr $end
$var reg 32 T buffer_weights [31:0] $end
$var reg 16 U buffer_weights_out [15:0] $end
$var reg 1 V buffer_wr $end
$var reg 16 W bus_input_out [15:0] $end
$var reg 16 X npu_out [15:0] $end
$var reg 1 Y ram_wr $end
$var reg 1 Z ram_wr_out $end
$var integer 32 [ idx [31:0] $end
$var integer 32 \ w [31:0] $end
$scope begin ativacao[0] $end
$var parameter 2 ] i $end
$scope module ativacao_unit $end
$var wire 1 . clk $end
$var wire 1 # en $end
$var wire 16 ^ v [15:0] $end
$var parameter 32 _ tam $end
$var reg 16 ` result [15:0] $end
$upscope $end
$upscope $end
$scope begin ativacao[1] $end
$var parameter 2 a i $end
$scope module ativacao_unit $end
$var wire 1 . clk $end
$var wire 1 # en $end
$var wire 16 b v [15:0] $end
$var parameter 32 c tam $end
$var reg 16 d result [15:0] $end
$upscope $end
$upscope $end
$scope begin ativacao_out[0] $end
$var parameter 2 e j $end
$scope module ativacao_unit2 $end
$var wire 1 . clk $end
$var wire 1 A en $end
$var wire 16 f v [15:0] $end
$var parameter 32 g tam $end
$var reg 16 h result [15:0] $end
$upscope $end
$upscope $end
$scope module FSM_unit $end
$var wire 2 i addr_wei [1:0] $end
$var wire 2 j addr_wei_out [1:0] $end
$var wire 1 . clk $end
$var wire 1 3 rst $end
$var wire 1 = over_input_out $end
$var wire 1 > over_input $end
$var wire 1 k current_state $end
$var parameter 4 l ATT_OUT $end
$var parameter 4 m ATV $end
$var parameter 4 n BIAS $end
$var parameter 4 o DUMP_WEIGHTS $end
$var parameter 4 p DUMP_WEIGHTS_OUT $end
$var parameter 4 q FINAL_RESULT $end
$var parameter 4 r OUT_BIAS $end
$var parameter 4 s OUT_SUM $end
$var parameter 4 t OUT_delay1 $end
$var parameter 4 u OUT_delay2 $end
$var parameter 4 v RST $end
$var parameter 4 w SUM $end
$var parameter 4 x SUM_delay1 $end
$var parameter 4 y SUM_delay2 $end
$var parameter 32 z in_qnt $end
$var parameter 32 { layer $end
$var parameter 32 | out_layer $end
$var reg 2 } PE_en [1:0] $end
$var reg 1 K PE_out_en $end
$var reg 1 H att_out $end
$var reg 1 # atv_en $end
$var reg 1 A atv_out_en $end
$var reg 1 D count_init $end
$var reg 1 E count_init_out $end
$var reg 4 ~ next_state [3:0] $end
$var reg 4 !" state [3:0] $end
$var reg 1 8 weight_out_wr $end
$var reg 1 7 weight_wr $end
$upscope $end
$scope module RAM_weights $end
$var wire 2 "" addr [1:0] $end
$var wire 1 . clk $end
$var wire 32 #" data_in [31:0] $end
$var wire 1 Y wr $end
$var parameter 32 $" in_qnt $end
$var parameter 32 %" layer $end
$var parameter 32 &" tam $end
$var reg 32 '" data_out [31:0] $end
$upscope $end
$scope module RAM_weights_out $end
$var wire 2 (" addr [1:0] $end
$var wire 1 . clk $end
$var wire 16 )" data_in [15:0] $end
$var wire 1 Z wr $end
$var parameter 32 *" in_qnt $end
$var parameter 32 +" layer $end
$var parameter 32 ," tam $end
$var reg 16 -" data_out [15:0] $end
$upscope $end
$scope module counter_layer $end
$var wire 1 . clk $end
$var wire 1 D init $end
$var wire 1 7 mode $end
$var wire 1 3 rst $end
$var parameter 1 ." READING $end
$var parameter 1 /" WRITING $end
$var parameter 32 0" layer $end
$var parameter 32 1" weights $end
$var reg 2 2" count [1:0] $end
$var reg 1 ? over $end
$var reg 1 > over_second $end
$var reg 2 3" second_count [1:0] $end
$upscope $end
$scope module counter_out_layer $end
$var wire 1 . clk $end
$var wire 1 E init $end
$var wire 1 8 mode $end
$var wire 1 3 rst $end
$var parameter 1 4" READING $end
$var parameter 1 5" WRITING $end
$var parameter 32 6" layer $end
$var parameter 32 7" weights $end
$var reg 2 8" count [1:0] $end
$var reg 1 < over $end
$var reg 1 = over_second $end
$var reg 2 9" second_count [1:0] $end
$upscope $end
$scope module matrix_unit $end
$var wire 2 :" PE_en [1:0] $end
$var wire 16 ;" bus_input [15:0] $end
$var wire 32 <" bus_weights [31:0] $end
$var wire 1 . clk $end
$var wire 1 3 rst $end
$var wire 32 =" acc_out [31:0] $end
$var parameter 32 >" layer $end
$var parameter 32 ?" tam $end
$scope begin PEs[0] $end
$var parameter 2 @" i $end
$scope module pe_unit $end
$var wire 16 A" bus_w [15:0] $end
$var wire 1 . clk $end
$var wire 16 B" data_in [15:0] $end
$var wire 1 C" en $end
$var wire 1 3 rst $end
$var wire 16 D" acc_out [15:0] $end
$var parameter 32 E" tam $end
$scope module mac_unit $end
$var wire 1 . clk $end
$var wire 16 F" data_in [15:0] $end
$var wire 1 C" en $end
$var wire 1 3 rst $end
$var wire 16 G" w_in [15:0] $end
$var wire 16 H" wire_sum [15:0] $end
$var wire 16 I" wire_mult [15:0] $end
$var parameter 32 J" tam $end
$var reg 16 K" mac_out [15:0] $end
$scope module sum0 $end
$var wire 16 L" a [15:0] $end
$var wire 1 C" en $end
$var wire 1 M" sign_b $end
$var wire 1 N" sign_a $end
$var wire 10 O" mantissa_b [9:0] $end
$var wire 10 P" mantissa_a [9:0] $end
$var wire 5 Q" exponent_b [4:0] $end
$var wire 5 R" exponent_a [4:0] $end
$var wire 16 S" b [15:0] $end
$var parameter 32 T" tam $end
$var reg 5 U" exponent_diference [4:0] $end
$var reg 5 V" exponent_result [4:0] $end
$var reg 12 W" mantissa_a_shifted [11:0] $end
$var reg 12 X" mantissa_b_shifted [11:0] $end
$var reg 12 Y" mantissa_sum [11:0] $end
$var reg 16 Z" result [15:0] $end
$var reg 1 [" sign_result $end
$upscope $end
$scope module utt0 $end
$var wire 16 \" a [15:0] $end
$var wire 16 ]" b [15:0] $end
$var wire 1 C" en $end
$var wire 11 ^" mantissa_b [10:0] $end
$var wire 11 _" mantissa_a [10:0] $end
$var parameter 32 `" tam $end
$var reg 6 a" exponent [5:0] $end
$var reg 22 b" mantissa_result [21:0] $end
$var reg 16 c" result [15:0] $end
$var reg 1 d" sign $end
$upscope $end
$upscope $end
$upscope $end
$upscope $end
$scope begin PEs[1] $end
$var parameter 2 e" i $end
$scope module pe_unit $end
$var wire 16 f" bus_w [15:0] $end
$var wire 1 . clk $end
$var wire 16 g" data_in [15:0] $end
$var wire 1 h" en $end
$var wire 1 3 rst $end
$var wire 16 i" acc_out [15:0] $end
$var parameter 32 j" tam $end
$scope module mac_unit $end
$var wire 1 . clk $end
$var wire 16 k" data_in [15:0] $end
$var wire 1 h" en $end
$var wire 1 3 rst $end
$var wire 16 l" w_in [15:0] $end
$var wire 16 m" wire_sum [15:0] $end
$var wire 16 n" wire_mult [15:0] $end
$var parameter 32 o" tam $end
$var reg 16 p" mac_out [15:0] $end
$scope module sum0 $end
$var wire 16 q" a [15:0] $end
$var wire 1 h" en $end
$var wire 1 r" sign_b $end
$var wire 1 s" sign_a $end
$var wire 10 t" mantissa_b [9:0] $end
$var wire 10 u" mantissa_a [9:0] $end
$var wire 5 v" exponent_b [4:0] $end
$var wire 5 w" exponent_a [4:0] $end
$var wire 16 x" b [15:0] $end
$var parameter 32 y" tam $end
$var reg 5 z" exponent_diference [4:0] $end
$var reg 5 {" exponent_result [4:0] $end
$var reg 12 |" mantissa_a_shifted [11:0] $end
$var reg 12 }" mantissa_b_shifted [11:0] $end
$var reg 12 ~" mantissa_sum [11:0] $end
$var reg 16 !# result [15:0] $end
$var reg 1 "# sign_result $end
$upscope $end
$scope module utt0 $end
$var wire 16 ## a [15:0] $end
$var wire 16 $# b [15:0] $end
$var wire 1 h" en $end
$var wire 11 %# mantissa_b [10:0] $end
$var wire 11 &# mantissa_a [10:0] $end
$var parameter 32 '# tam $end
$var reg 6 (# exponent [5:0] $end
$var reg 22 )# mantissa_result [21:0] $end
$var reg 16 *# result [15:0] $end
$var reg 1 +# sign $end
$upscope $end
$upscope $end
$upscope $end
$upscope $end
$upscope $end
$scope module matrix_unit2 $end
$var wire 1 K PE_en $end
$var wire 16 ,# bus_input [15:0] $end
$var wire 16 -# bus_weights [15:0] $end
$var wire 1 . clk $end
$var wire 1 3 rst $end
$var wire 16 .# acc_out [15:0] $end
$var parameter 32 /# layer $end
$var parameter 32 0# tam $end
$scope begin PEs[0] $end
$var parameter 2 1# i $end
$scope module pe_unit $end
$var wire 16 2# bus_w [15:0] $end
$var wire 1 . clk $end
$var wire 16 3# data_in [15:0] $end
$var wire 1 K en $end
$var wire 1 3 rst $end
$var wire 16 4# acc_out [15:0] $end
$var parameter 32 5# tam $end
$scope module mac_unit $end
$var wire 1 . clk $end
$var wire 16 6# data_in [15:0] $end
$var wire 1 K en $end
$var wire 1 3 rst $end
$var wire 16 7# w_in [15:0] $end
$var wire 16 8# wire_sum [15:0] $end
$var wire 16 9# wire_mult [15:0] $end
$var parameter 32 :# tam $end
$var reg 16 ;# mac_out [15:0] $end
$scope module sum0 $end
$var wire 16 <# a [15:0] $end
$var wire 1 K en $end
$var wire 1 =# sign_b $end
$var wire 1 ># sign_a $end
$var wire 10 ?# mantissa_b [9:0] $end
$var wire 10 @# mantissa_a [9:0] $end
$var wire 5 A# exponent_b [4:0] $end
$var wire 5 B# exponent_a [4:0] $end
$var wire 16 C# b [15:0] $end
$var parameter 32 D# tam $end
$var reg 5 E# exponent_diference [4:0] $end
$var reg 5 F# exponent_result [4:0] $end
$var reg 12 G# mantissa_a_shifted [11:0] $end
$var reg 12 H# mantissa_b_shifted [11:0] $end
$var reg 12 I# mantissa_sum [11:0] $end
$var reg 16 J# result [15:0] $end
$var reg 1 K# sign_result $end
$upscope $end
$scope module utt0 $end
$var wire 16 L# a [15:0] $end
$var wire 16 M# b [15:0] $end
$var wire 1 K en $end
$var wire 11 N# mantissa_b [10:0] $end
$var wire 11 O# mantissa_a [10:0] $end
$var parameter 32 P# tam $end
$var reg 6 Q# exponent [5:0] $end
$var reg 22 R# mantissa_result [21:0] $end
$var reg 16 S# result [15:0] $end
$var reg 1 T# sign $end
$upscope $end
$upscope $end
$upscope $end
$upscope $end
$upscope $end
$upscope $end
$upscope $end
$enddefinitions $end
$comment Show the parameter values. $end
$dumpall
b10000 P#
b10000 D#
b10000 :#
b10000 5#
b0 1#
b10000 0#
b1 /#
b10000 '#
b10000 y"
b10000 o"
b10000 j"
b1 e"
b10000 `"
b10000 T"
b10000 J"
b10000 E"
b0 @"
b10000 ?"
b10 >"
b10 7"
b1 6"
15"
04"
b10 1"
b10 0"
1/"
0."
b10000 ,"
b1 +"
b10 *"
b10000 &"
b10 %"
b10 $"
b1 |
b10 {
b10 z
b101 y
b100 x
b11 w
b0 v
b1010 u
b1001 t
b1000 s
b1011 r
b1100 q
b10 p
b1 o
b110 n
b111 m
b1101 l
b10000 g
b0 e
b10000 c
b1 a
b10000 _
b0 ]
b10000 P
b1 O
b10 N
b10 M
b10000 ,
b1 +
b10 *
b10 )
$end
#0
$dumpvars
xT#
bx S#
bx R#
bx Q#
b1xxxxxxxxxx O#
b1xxxxxxxxxx N#
bx M#
bx L#
xK#
bx J#
bx I#
bx H#
bx G#
bx F#
bx E#
bx C#
b0 B#
bx A#
b0 @#
bx ?#
0>#
x=#
b0 <#
b0 ;#
bx 9#
bx 8#
bx 7#
bx 6#
b0 4#
bx 3#
bx 2#
b0 .#
bx -#
bx ,#
x+#
bx *#
bx )#
bx (#
b1xxxxxxxxxx &#
b1xxxxxxxxxx %#
bx $#
bx ##
x"#
bx !#
bx ~"
bx }"
bx |"
bx {"
bx z"
bx x"
b0 w"
bx v"
b0 u"
bx t"
0s"
xr"
b0 q"
b0 p"
bx n"
bx m"
bx l"
bx k"
b0 i"
0h"
bx g"
bx f"
xd"
bx c"
bx b"
bx a"
b1xxxxxxxxxx _"
b1xxxxxxxxxx ^"
bx ]"
bx \"
x["
bx Z"
bx Y"
bx X"
bx W"
bx V"
bx U"
bx S"
b0 R"
bx Q"
b0 P"
bx O"
0N"
xM"
b0 L"
b0 K"
bx I"
bx H"
bx G"
bx F"
b0 D"
0C"
bx B"
bx A"
b0 ="
bx <"
bx ;"
b0 :"
b0 9"
b0 8"
b0 3"
b0 2"
bx -"
bx )"
bx ("
bx '"
bx #"
bx ""
b0 !"
b1 ~
b0 }
0k
bx j
bx i
bx h
b0 f
bx d
b0 b
bx `
b0 ^
b0 \
b0 [
0Z
0Y
b0 X
bx W
0V
bx U
bx T
0S
bx R
bx Q
b0 L
0K
b0 J
b0 I
0H
bx G
bx F
0E
0D
b0 C
b0 B
0A
bx @
0?
x>
x=
0<
b11110000000000xxxxxxxxxxxxxxxxxxxxxxxxxxxxxxxx ;
b0 :
b0 9
08
07
b11100000000000 6
b11100000000000 5
bx 4
13
b11110000000000 2
b0 1
b0 0
bx /
0.
bx -
b0 (
b0 '
b0 &
b0 %
b0 $
0#
b11100000000000 "
b11100000000000 !
$end
#50
b0 -
b0 R
b0 j
b0 ("
b0 Q
b0 i
b0 ""
b0 [
1.
#100
0.
#150
b10000000000 _"
b10000000000 &#
b0 /
b0 4
b0 ;"
b0 B"
b0 F"
b0 \"
b0 g"
b0 k"
b0 ##
b0 [
1.
#200
0.
03
#250
bx0011100000000000 T
bx0011100000000000 #"
17
1D
1k
1S
1V
b1 !"
0=
0>
b11 [
1.
#300
0.
#350
b1011100000000000 !
b1011100000000000 5
b1 (
b1 :
b1 2"
b11 [
1.
#400
0.
#450
b1011110000000000 !
b1011110000000000 5
b1 &
b1 C
b1 3"
1?
b0 (
b0 :
b0 2"
1Y
b10111000000000000011100000000000 T
b10111000000000000011100000000000 #"
b11 [
1.
#500
0.
#550
b11100000000000 !
b11100000000000 5
b1 (
b1 :
b1 2"
0?
b1 -
b1 Q
b1 i
b1 ""
b10111000000000001011110000000000 T
b10111000000000001011110000000000 #"
0Y
b11 [
1.
#600
0.
#650
b1011100000000000 !
b1011100000000000 5
b10 &
b10 C
b10 3"
1?
b0 (
b0 :
b0 2"
1Y
b111000000000001011110000000000 T
b111000000000001011110000000000 #"
b11 [
1.
#700
0.
#750
b1 (
b1 :
b1 2"
0?
b10 -
b10 Q
b10 i
b10 ""
b111000000000001011100000000000 T
b111000000000001011100000000000 #"
0Y
b11 [
1.
#800
0.
#850
b10 ~
b11110000000000 /
b11110000000000 4
b11110000000000 ;"
b11110000000000 B"
b11110000000000 F"
b11110000000000 \"
b11110000000000 g"
b11110000000000 k"
b11110000000000 ##
0V
1>
1Y
b10111000000000001011100000000000 T
b10111000000000001011100000000000 #"
b11 [
1.
#900
0.
#950
1Z
b11100000000000 U
b11100000000000 )"
1E
18
07
0D
0k
1>
b10 !"
0Y
b11 [
1.
#1000
0.
#1050
b10000000000 ^"
b10000000000 %#
b11100000000000 !
b11100000000000 5
b1011100000000000 A"
b1011100000000000 G"
b1011100000000000 ]"
b1011100000000000 f"
b1011100000000000 l"
b1011100000000000 $#
b1 %
b1 B
b1 9"
1<
0>
b0 &
b0 C
b0 3"
b0 (
b0 :
b0 2"
b10111000000000001011100000000000 G
b10111000000000001011100000000000 '"
b10111000000000001011100000000000 <"
1Z
b11 [
1.
#1100
0.
#1150
b1011100000000000 "
b1011100000000000 6
b10 %
b10 B
b10 9"
1<
1V
b0 -
b1 R
b1 j
b1 ("
b0 Q
b0 i
b0 ""
1Z
b11 [
1.
#1200
0.
#1250
b11100000000000 A"
b11100000000000 G"
b11100000000000 ]"
b11 ~
b0 /
b0 4
b0 ;"
b0 B"
b0 F"
b0 \"
b0 g"
b0 k"
b0 ##
0S
1=
0<
b10111000000000000011100000000000 G
b10111000000000000011100000000000 '"
b10111000000000000011100000000000 <"
b10 R
b10 j
b10 ("
b1011100000000000 U
b1011100000000000 )"
1Z
b11 [
1.
#1300
0.
#1350
b10000000000 O#
1D
08
0E
b100 ~
1k
1=
b11 !"
b11110000000000 W
b11110000000000 ,#
b11110000000000 3#
b11110000000000 6#
b11110000000000 L#
1Z
b11 [
1.
#1400
0.
#1450
1D
0k
b101 ~
b11100000000000 "
b11100000000000 6
b1011110000000000 !
b1011110000000000 5
b100 !"
0=
b0 %
b0 B
b0 9"
b1 &
b1 C
b1 3"
0Z
b11 [
1.
#1500
0.
#1550
b0 O"
b0 Q"
0M"
b0 t"
b0 v"
0r"
b0 H"
b0 Z"
b0 I"
b0 S"
b0 c"
b0 m"
b0 !#
b0 n"
b0 x"
b0 *#
1C"
1h"
b10000000000 N#
b1011100000000000 !
b1011100000000000 5
b11 L
b11 }
b11 :"
0D
1k
b10 &
b10 C
b10 3"
b101 !"
1S
b1 -
b1011100000000000 F
b1011100000000000 -"
b1011100000000000 -#
b1011100000000000 2#
b1011100000000000 7#
b1011100000000000 M#
b0 R
b0 j
b0 ("
b1 Q
b1 i
b1 ""
b11 [
1.
#1600
0.
#1650
b1xxxxxxxxxx O#
b11100000000000 !
b11100000000000 5
b1011110000000000 A"
b1011110000000000 G"
b1011110000000000 ]"
b11100000000000 f"
b11100000000000 l"
b11100000000000 $#
b110 ~
b10 -
b0 &
b0 C
b0 3"
b111000000000001011110000000000 G
b111000000000001011110000000000 '"
b111000000000001011110000000000 <"
b11100000000000 F
b11100000000000 -"
b11100000000000 -#
b11100000000000 2#
b11100000000000 7#
b11100000000000 M#
bx W
bx ,#
bx 3#
bx 6#
bx L#
b10 Q
b10 i
b10 ""
b11 [
1.
#1700
0.
#1750
b1110 Q"
1M"
b1011100000000000 H"
b1011100000000000 Z"
b1110 v"
1r"
b1011100000000000 m"
b1011100000000000 !#
b11 L
b11 }
b11 :"
0k
b1011100000000000 I"
b1011100000000000 S"
b1011100000000000 c"
b0 b"
b1110 a"
1d"
b1011100000000000 n"
b1011100000000000 x"
b1011100000000000 *#
b0 )#
b1110 (#
1+#
b1011100000000000 A"
b1011100000000000 G"
b1011100000000000 ]"
b1011100000000000 f"
b1011100000000000 l"
b1011100000000000 $#
b111 ~
b110 !"
b11110000000000 /
b11110000000000 4
b11110000000000 ;"
b11110000000000 B"
b11110000000000 F"
b11110000000000 \"
b11110000000000 g"
b11110000000000 k"
b11110000000000 ##
b0 -
b10111000000000001011100000000000 G
b10111000000000001011100000000000 '"
b10111000000000001011100000000000 <"
b0 Q
b0 i
b0 ""
b11 [
1.
#1800
0.
#1850
b0 Q"
0M"
b0 v"
0r"
b1011100000000000 b
b1011100000000000 ^
0C"
0h"
b0 I"
b0 S"
b0 c"
b0 n"
b0 x"
b0 *#
b1011110000000000 m"
b1011110000000000 !#
1"#
b10000000000 ~"
b1111 {"
b10000000000 }"
b10000000000 |"
b0 z"
1s"
b1110 w"
b1011110000000000 H"
b1011110000000000 Z"
1["
b10000000000 Y"
b1111 V"
b10000000000 X"
b10000000000 W"
b0 U"
1N"
b1110 R"
b10111000000000001011100000000000 J
b10111000000000001011100000000000 ="
1#
b0 L
b0 }
b0 :"
b1000 ~
1k
b11100000000000 A"
b11100000000000 G"
b11100000000000 ]"
b0 /
b0 4
b0 ;"
b0 B"
b0 F"
b0 \"
b0 g"
b0 k"
b0 ##
b1011100000000000 i"
b1011100000000000 p"
b1011100000000000 q"
b1011100000000000 D"
b1011100000000000 K"
b1011100000000000 L"
b111 !"
b10111000000000000011100000000000 G
b10111000000000000011100000000000 '"
b10111000000000000011100000000000 <"
b11 [
1.
#1900
0.
#1950
b0 b
b0 ^
1E
0#
b1001 ~
0k
0N"
b0 R"
0s"
b0 w"
b0 J
b0 ="
b1000 !"
b0 D"
b0 K"
b0 L"
b0 i"
b0 p"
b0 q"
b1111000000000000000000000000000000000000000000 ;
b11 [
b0 d
b0 `
1.
#2000
0.
#2050
1E
b1010 ~
1k
b1001 !"
b1 %
b1 B
b1 9"
b11 [
1.
#2100
0.
#2150
b0 ?#
b0 A#
0=#
b0 8#
b0 J#
b0 9#
b0 C#
b0 S#
b10000000000 O#
b1011100000000000 "
b1011100000000000 6
1K
1E
0k
b10 %
b10 B
b10 9"
b1010 !"
b0 W
b0 ,#
b0 3#
b0 6#
b0 L#
b1 R
b1 j
b1 ("
b11 [
1.
#2200
0.
#2250
b11100000000000 "
b11100000000000 6
b1011 ~
0S
b0 %
b0 B
b0 9"
b10 R
b10 j
b10 ("
b11 [
1.
#2300
0.
#2350
b1110 A#
1=#
b1011100000000000 8#
b1011100000000000 J#
1K
0E
1k
b1011100000000000 9#
b1011100000000000 C#
b1011100000000000 S#
b0 R#
b1110 Q#
1T#
b1100 ~
b1 %
b1 B
b1 9"
b1011 !"
1S
b11110000000000 W
b11110000000000 ,#
b11110000000000 3#
b11110000000000 6#
b11110000000000 L#
b1011100000000000 F
b1011100000000000 -"
b1011100000000000 -#
b1011100000000000 2#
b1011100000000000 7#
b1011100000000000 M#
b0 R
b0 j
b0 ("
b11 [
1.
#2400
0.
#2450
b0 A#
0=#
1>#
b1110 B#
1A
0K
0k
b0 9#
b0 C#
b0 S#
b1101 ~
b1011100000000000 I
b1011100000000000 f
b1011100000000000 .#
b1011100000000000 4#
b1011100000000000 ;#
b1011100000000000 <#
b1100 !"
b0 %
b0 B
b0 9"
b11100000000000 F
b11100000000000 -"
b11100000000000 -#
b11100000000000 2#
b11100000000000 7#
b11100000000000 M#
b0 W
b0 ,#
b0 3#
b0 6#
b0 L#
b1 R
b1 j
b1 ("
b11 [
1.
#2500
0.
#2550
1H
0A
1k
0>#
b0 B#
b11 ~
b1101 !"
b0 I
b0 f
b0 .#
b0 4#
b0 ;#
b0 <#
b0 R
b0 j
b0 ("
b11 [
b0 @
b0 h
1.
#2600
0.
#2650
1D
0H
b100 ~
b11 !"
b1 [
1.
#2700
0.
#2750
b1011110000000000 !
b1011110000000000 5
1D
b101 ~
0k
b1 &
b1 C
b1 3"
b100 !"
b11 [
1.
#2800
0.
#2850
b0 H"
b0 Z"
b0 m"
b0 !#
1C"
1h"
b11 L
b11 }
b11 :"
0D
1k
b1011100000000000 !
b1011100000000000 5
b1 -
b101 !"
b10 &
b10 C
b10 3"
b1 Q
b1 i
b1 ""
b11 [
1.
#2900
0.
#2950
b11100000000000 !
b11100000000000 5
b1011110000000000 A"
b1011110000000000 G"
b1011110000000000 ]"
b11100000000000 f"
b11100000000000 l"
b11100000000000 $#
b110 ~
b0 &
b0 C
b0 3"
b10 -
b111000000000001011110000000000 G
b111000000000001011110000000000 '"
b111000000000001011110000000000 <"
b10 Q
b10 i
b10 ""
b11 [
1.
#3000
0.
#3050
b1110 Q"
1M"
b1011100000000000 H"
b1011100000000000 Z"
b1110 v"
1r"
b1011100000000000 m"
b1011100000000000 !#
b1011100000000000 I"
b1011100000000000 S"
b1011100000000000 c"
b0 b"
b1011100000000000 n"
b1011100000000000 x"
b1011100000000000 *#
b0 )#
b11 L
b11 }
b11 :"
0k
b1011100000000000 A"
b1011100000000000 G"
b1011100000000000 ]"
b1011100000000000 f"
b1011100000000000 l"
b1011100000000000 $#
b111 ~
b11110000000000 /
b11110000000000 4
b11110000000000 ;"
b11110000000000 B"
b11110000000000 F"
b11110000000000 \"
b11110000000000 g"
b11110000000000 k"
b11110000000000 ##
b0 -
b110 !"
b10111000000000001011100000000000 G
b10111000000000001011100000000000 '"
b10111000000000001011100000000000 <"
b0 Q
b0 i
b0 ""
b11 [
1.
#3100
0.
#3150
0C"
0h"
b1011100000000000 b
b1011100000000000 ^
b0 Q"
0M"
b0 v"
0r"
1#
b0 L
b0 }
b0 :"
b1000 ~
1k
1N"
b1110 R"
1s"
b1110 w"
b10111000000000001011100000000000 J
b10111000000000001011100000000000 ="
b0 I"
b0 S"
b0 c"
b0 n"
b0 x"
b0 *#
b11100000000000 A"
b11100000000000 G"
b11100000000000 ]"
b111 !"
b1011100000000000 D"
b1011100000000000 K"
b1011100000000000 L"
b1011100000000000 i"
b1011100000000000 p"
b1011100000000000 q"
b0 /
b0 4
b0 ;"
b0 B"
b0 F"
b0 \"
b0 g"
b0 k"
b0 ##
b10111000000000000011100000000000 G
b10111000000000000011100000000000 '"
b10111000000000000011100000000000 <"
b11 [
1.
#3200
0.
#3250
b0 b
b0 ^
0s"
b0 w"
0N"
b0 R"
b0 J
b0 ="
1E
0#
b1001 ~
0k
b0 i"
b0 p"
b0 q"
b0 D"
b0 K"
b0 L"
b1000 !"
b11 [
1.
b11110000000000 1
#3300
0.
#3350
1E
b1010 ~
1k
b1 %
b1 B
b1 9"
b1001 !"
b11 [
1.
#3400
0.
#3450
b0 8#
b0 J#
1K
1E
0k
b1011100000000000 "
b1011100000000000 6
b1010 !"
b10 %
b10 B
b10 9"
b1 R
b1 j
b1 ("
b11 [
1.
#3500
0.
#3550
b11100000000000 "
b11100000000000 6
b1011 ~
b0 %
b0 B
b0 9"
0S
b10 R
b10 j
b10 ("
b11 [
1.
#3600
0.
#3650
b1110 A#
1=#
b1011100000000000 8#
b1011100000000000 J#
1K
0E
1k
b1011100000000000 9#
b1011100000000000 C#
b1011100000000000 S#
b0 R#
b1100 ~
1S
b1011 !"
b1 %
b1 B
b1 9"
b1011100000000000 F
b1011100000000000 -"
b1011100000000000 -#
b1011100000000000 2#
b1011100000000000 7#
b1011100000000000 M#
b11110000000000 W
b11110000000000 ,#
b11110000000000 3#
b11110000000000 6#
b11110000000000 L#
b0 R
b0 j
b0 ("
b11 [
1.
#3700
0.
#3750
b0 A#
0=#
1A
0K
0k
1>#
b1110 B#
b0 9#
b0 C#
b0 S#
b1101 ~
b0 %
b0 B
b0 9"
b1100 !"
b1011100000000000 I
b1011100000000000 f
b1011100000000000 .#
b1011100000000000 4#
b1011100000000000 ;#
b1011100000000000 <#
b0 W
b0 ,#
b0 3#
b0 6#
b0 L#
b11100000000000 F
b11100000000000 -"
b11100000000000 -#
b11100000000000 2#
b11100000000000 7#
b11100000000000 M#
b1 R
b1 j
b1 ("
b11 [
1.
#3800
0.
#3850
0>#
b0 B#
1H
0A
1k
b11 ~
b0 I
b0 f
b0 .#
b0 4#
b0 ;#
b0 <#
b1101 !"
b0 R
b0 j
b0 ("
b11 [
1.
#3900
0.
#3950
1D
0H
b100 ~
b11 !"
b1 [
1.
#4000
0.
#4050
1D
b101 ~
0k
b1011110000000000 !
b1011110000000000 5
b100 !"
b1 &
b1 C
b1 3"
b11 [
1.
#4100
0.
#4150
b0 H"
b0 Z"
b0 m"
b0 !#
1C"
1h"
b1011100000000000 !
b1011100000000000 5
b11 L
b11 }
b11 :"
0D
1k
b10 &
b10 C
b10 3"
b101 !"
b1 -
b1 Q
b1 i
b1 ""
b11 [
1.
#4200
0.
#4250
b1111 Q"
1M"
b1011110000000000 H"
b1011110000000000 Z"
b1110 v"
b11100000000000 m"
b11100000000000 !#
b1011110000000000 I"
b1011110000000000 S"
b1011110000000000 c"
b0 b"
b1111 a"
b11100000000000 n"
b11100000000000 x"
b11100000000000 *#
b0 )#
0+#
b11100000000000 !
b11100000000000 5
b1011110000000000 A"
b1011110000000000 G"
b1011110000000000 ]"
b11100000000000 f"
b11100000000000 l"
b11100000000000 $#
b110 ~
b11110000000000 /
b11110000000000 4
b11110000000000 ;"
b11110000000000 B"
b11110000000000 F"
b11110000000000 \"
b11110000000000 g"
b11110000000000 k"
b11110000000000 ##
b10 -
b0 &
b0 C
b0 3"
b111000000000001011110000000000 G
b111000000000001011110000000000 '"
b111000000000001011110000000000 <"
b10 Q
b10 i
b10 ""
b11 [
1.
#4300
0.
