vcds/matrix_pe.vcd
$date
	Sat Jun 13 18:32:49 2026
$end
$version
	Icarus Verilog
$end
$timescale
	100ps
$end
$scope module matrixPE_tb $end
$var wire 16 ! data [15:0] $end
$var wire 32 " weights_in [31:0] $end
$var wire 32 # out [31:0] $end
$var reg 2 $ PE_en [1:0] $end
$var reg 2 % addr_data [1:0] $end
$var reg 1 & clk $end
$var reg 1 ' rst $end
$scope module matrix_1 $end
$var wire 2 ( PE_en [1:0] $end
$var wire 16 ) bus_input [15:0] $end
$var wire 32 * bus_weights [31:0] $end
$var wire 1 & clk $end
$var wire 1 ' rst $end
$var wire 32 + acc_out [31:0] $end
$var parameter 32 , layer $end
$var parameter 32 - tam $end
$scope begin PEs[0] $end
$var parameter 2 . i $end
$scope module pe_unit $end
$var wire 16 / bus_w [15:0] $end
$var wire 1 & clk $end
$var wire 16 0 data_in [15:0] $end
$var wire 1 1 en $end
$var wire 1 ' rst $end
$var wire 16 2 acc_out [15:0] $end
$var parameter 32 3 tam $end
$scope module mac_unit $end
$var wire 1 & clk $end
$var wire 16 4 data_in [15:0] $end
$var wire 1 1 en $end
$var wire 1 ' rst $end
$var wire 16 5 w_in [15:0] $end
$var wire 16 6 wire_sum [15:0] $end
$var wire 16 7 wire_mult [15:0] $end
$var parameter 32 8 tam $end
$var reg 16 9 mac_out [15:0] $end
$scope module sum0 $end
$var wire 16 : a [15:0] $end
$var wire 1 1 en $end
$var wire 1 ; sign_b $end
$var wire 1 < sign_a $end
$var wire 10 = mantissa_b [9:0] $end
$var wire 10 > mantissa_a [9:0] $end
$var wire 5 ? exponent_b [4:0] $end
$var wire 5 @ exponent_a [4:0] $end
$var wire 16 A b [15:0] $end
$var parameter 32 B tam $end
$var reg 5 C exponent_diference [4:0] $end
$var reg 5 D exponent_result [4:0] $end
$var reg 12 E mantissa_a_shifted [11:0] $end
$var reg 12 F mantissa_b_shifted [11:0] $end
$var reg 12 G mantissa_sum [11:0] $end
$var reg 16 H result [15:0] $end
$var reg 1 I sign_result $end
$upscope $end
$scope module utt0 $end
$var wire 16 J a [15:0] $end
$var wire 16 K b [15:0] $end
$var wire 1 1 en $end
$var wire 11 L mantissa_b [10:0] $end
$var wire 11 M mantissa_a [10:0] $end
$var parameter 32 N tam $end
$var reg 6 O exponent [5:0] $end
$var reg 22 P mantissa_result [21:0] $end
$var reg 16 Q result [15:0] $end
$var reg 1 R sign $end
$upscope $end
$upscope $end
$upscope $end
$upscope $end
$scope begin PEs[1] $end
$var parameter 2 S i $end
$scope module pe_unit $end
$var wire 16 T bus_w [15:0] $end
$var wire 1 & clk $end
$var wire 16 U data_in [15:0] $end
$var wire 1 V en $end
$var wire 1 ' rst $end
$var wire 16 W acc_out [15:0] $end
$var parameter 32 X tam $end
$scope module mac_unit $end
$var wire 1 & clk $end
$var wire 16 Y data_in [15:0] $end
$var wire 1 V en $end
$var wire 1 ' rst $end
$var wire 16 Z w_in [15:0] $end
$var wire 16 [ wire_sum [15:0] $end
$var wire 16 \ wire_mult [15:0] $end
$var parameter 32 ] tam $end
$var reg 16 ^ mac_out [15:0] $end
$scope module sum0 $end
$var wire 16 _ a [15:0] $end
$var wire 1 V en $end
$var wire 1 ` sign_b $end
$var wire 1 a sign_a $end
$var wire 10 b mantissa_b [9:0] $end
$var wire 10 c mantissa_a [9:0] $end
$var wire 5 d exponent_b [4:0] $end
$var wire 5 e exponent_a [4:0] $end
$var wire 16 f b [15:0] $end
$var parameter 32 g tam $end
$var reg 5 h exponent_diference [4:0] $end
$var reg 5 i exponent_result [4:0] $end
$var reg 12 j mantissa_a_shifted [11:0] $end
$var reg 12 k mantissa_b_shifted [11:0] $end
$var reg 12 l mantissa_sum [11:0] $end
$var reg 16 m result [15:0] $end
$var reg 1 n sign_result $end
$upscope $end
$scope module utt0 $end
$var wire 16 o a [15:0] $end
$var wire 16 p b [15:0] $end
$var wire 1 V en $end
$var wire 11 q mantissa_b [10:0] $end
$var wire 11 r mantissa_a [10:0] $end
$var parameter 32 s tam $end
$var reg 6 t exponent [5:0] $end
$var reg 22 u mantissa_result [21:0] $end
$var reg 16 v result [15:0] $end
$var reg 1 w sign $end
$upscope $end
$upscope $end
$upscope $end
$upscope $end
$upscope $end
$upscope $end
$enddefinitions $end
$comment Show the parameter values. $end
$dumpall
b10000 s
b10000 g
b10000 ]
b10000 X
b1 S
b10000 N
b10000 B
b10000 8
b10000 3
b0 .
b10000 -
b10 ,
$end
#0
$dumpvars
xw
bx v
bx u
bx t
b10000000000 r
b10000000000 q
b11100000000000 p
b0 o
xn
bx m
bx l
bx k
bx j
bx i
bx h
bx f
b0 e
bx d
b0 c
bx b
0a
x`
b0 _
b0 ^
bx \
bx [
b11100000000000 Z
b0 Y
b0 W
0V
b0 U
b11100000000000 T
xR
bx Q
bx P
bx O
b10000000000 M
b10000000000 L
b1011110000000000 K
b0 J
xI
bx H
bx G
bx F
bx E
bx D
bx C
bx A
b0 @
bx ?
b0 >
bx =
0<
x;
b0 :
b0 9
bx 7
bx 6
b1011110000000000 5
b0 4
b0 2
01
b0 0
b1011110000000000 /
b0 +
b111000000000001011110000000000 *
b0 )
b0 (
1'
0&
b0 %
b0 $
b0 #
b111000000000001011110000000000 "
b0 !
$end
#50
1&
#100
0&
0'
#150
b0 =
b0 ?
0;
b0 b
b0 d
0`
b0 6
b0 H
b0 7
b0 A
b0 Q
b0 [
b0 m
b0 \
b0 f
b0 v
11
1V
b11 $
b11 (
1&
#200
0&
#250
b11100000000000 /
b11100000000000 5
b11100000000000 K
b1011110000000000 T
b1011110000000000 Z
b1011110000000000 p
b10111100000000000011100000000000 "
b10111100000000000011100000000000 *
b1 %
1&
#300
0&
#350
1;
b1110 ?
b1011100000000000 6
b1011100000000000 H
b1110 d
1`
b1011100000000000 [
b1011100000000000 m
b1011100000000000 /
b1011100000000000 5
b1011100000000000 K
b1011100000000000 T
b1011100000000000 Z
b1011100000000000 p
b1011100000000000 7
b1011100000000000 A
b1011100000000000 Q
b0 P
b1110 O
1R
b1011100000000000 \
b1011100000000000 f
b1011100000000000 v
b0 u
b1110 t
1w
b10111000000000001011100000000000 "
b10111000000000001011100000000000 *
b11110000000000 !
b11110000000000 )
b11110000000000 0
b11110000000000 4
b11110000000000 J
b11110000000000 U
b11110000000000 Y
b11110000000000 o
b10 %
1&
#400
0&
#450
b1011110000000000 /
b1011110000000000 5
b1011110000000000 K
b11100000000000 T
b11100000000000 Z
b11100000000000 p
b111000000000001011110000000000 "
b111000000000001011110000000000 *
b0 !
b0 )
b0 0
b0 4
b0 J
b0 U
b0 Y
b0 o
01
0V
b1011110000000000 [
b1011110000000000 m
1n
b10000000000 l
b1111 i
b10000000000 k
b10000000000 j
b0 h
1a
b1110 e
b1011110000000000 6
b1011110000000000 H
1I
b10000000000 G
b1111 D
b10000000000 F
b10000000000 E
b0 C
1<
b1110 @
b10111000000000001011100000000000 #
b10111000000000001011100000000000 +
b0 %
b0 $
b0 (
b1011100000000000 W
b1011100000000000 ^
b1011100000000000 _
b1011100000000000 2
b1011100000000000 9
b1011100000000000 :
1&
#500
0&
#550
b0 ?
0;
b0 d
0`
b0 7
b0 A
b0 Q
b0 \
b0 f
b0 v
b0 6
b0 H
0<
b0 @
b0 [
b0 m
0a
b0 e
b0 #
b0 +
11
1V
b0 2
b0 9
b0 :
b0 W
b0 ^
b0 _
b11 $
b11 (
1&
#600
0&
#650
b11100000000000 /
b11100000000000 5
b11100000000000 K
b1011110000000000 T
b1011110000000000 Z
b1011110000000000 p
b10111100000000000011100000000000 "
b10111100000000000011100000000000 *
b1 %
1&
#700
0&
#750
1;
b1110 ?
b1011100000000000 6
b1011100000000000 H
b1110 d
1`
b1011100000000000 [
b1011100000000000 m
b1011100000000000 /
b1011100000000000 5
b1011100000000000 K
b1011100000000000 T
b1011100000000000 Z
b1011100000000000 p
b1011100000000000 7
b1011100000000000 A
b1011100000000000 Q
b0 P
1R
b1011100000000000 \
b1011100000000000 f
b1011100000000000 v
b0 u
b1110 t
b10111000000000001011100000000000 "
b10111000000000001011100000000000 *
b11110000000000 !
b11110000000000 )
b11110000000000 0
b11110000000000 4
b11110000000000 J
b11110000000000 U
b11110000000000 Y
b11110000000000 o
b10 %
1&
#800
0&
#850
b1011110000000000 /
b1011110000000000 5
b1011110000000000 K
b11100000000000 T
b11100000000000 Z
b11100000000000 p
b111000000000001011110000000000 "
b111000000000001011110000000000 *
b0 !
b0 )
b0 0
b0 4
b0 J
b0 U
b0 Y
b0 o
01
0V
b1011110000000000 [
b1011110000000000 m
b10000000000 l
b1111 i
1a
b1110 e
b1011110000000000 6
b1011110000000000 H
b10000000000 G
b1111 D
1<
b1110 @
b10111000000000001011100000000000 #
b10111000000000001011100000000000 +
b0 %
b0 $
b0 (
b1011100000000000 W
b1011100000000000 ^
b1011100000000000 _
b1011100000000000 2
b1011100000000000 9
b1011100000000000 :
1&
#900
0&
#950
b0 ?
0;
b0 d
0`
b0 7
b0 A
b0 Q
b0 \
b0 f
b0 v
b0 6
b0 H
0<
b0 @
b0 [
b0 m
0a
b0 e
b0 #
b0 +
11
1V
b0 2
b0 9
b0 :
b0 W
b0 ^
b0 _
b11 $
b11 (
1&
#1000
0&
#1050
b11100000000000 /
b11100000000000 5
b11100000000000 K
b1011110000000000 T
b1011110000000000 Z
b1011110000000000 p
b10111100000000000011100000000000 "
b10111100000000000011100000000000 *
b1 %
1&
